2017-09-28 11:38:19.9526 AdvWorksMVC.Controllers.PhotoController 7
2017-09-28 11:38:28.4201 AdvWorksMVC.Controllers.PhotoController 0
2017-09-28 11:38:51.7565 AdvWorksMVC.Controllers.PhotoController 7
2017-09-28 11:38:55.5207 AdvWorksMVC.Controllers.PhotoController 7
2017-09-28 11:38:55.6897 AdvWorksMVC.Controllers.PhotoController 7
2017-09-28 11:38:55.8727 AdvWorksMVC.Controllers.PhotoController 7
2017-09-28 11:38:56.0657 AdvWorksMVC.Controllers.PhotoController 7
2017-09-28 11:38:56.2387 AdvWorksMVC.Controllers.PhotoController 7
2017-09-28 11:38:56.3877 AdvWorksMVC.Controllers.PhotoController 7
2017-09-28 11:38:56.5547 AdvWorksMVC.Controllers.PhotoController 7
2017-09-28 11:38:56.7137 AdvWorksMVC.Controllers.PhotoController 7
2017-09-28 11:38:56.8887 AdvWorksMVC.Controllers.PhotoController 7
2017-09-28 11:39:10.2565 AdvWorksMVC.Controllers.PhotoController 7
2017-09-28 11:39:15.6548 AdvWorksMVC.Controllers.PhotoController 7
2017-09-28 11:39:15.8568 AdvWorksMVC.Controllers.PhotoController 7
2017-09-28 11:39:16.0368 AdvWorksMVC.Controllers.PhotoController 7
2017-09-28 11:39:16.2219 AdvWorksMVC.Controllers.PhotoController 7
2017-09-28 11:39:16.5379 AdvWorksMVC.Controllers.PhotoController 7
2017-09-28 11:39:16.7199 AdvWorksMVC.Controllers.PhotoController 7
2017-09-28 11:39:17.5539 AdvWorksMVC.Controllers.PhotoController 7
2017-09-28 11:39:17.7199 AdvWorksMVC.Controllers.PhotoController 7
2017-09-28 11:39:17.8919 AdvWorksMVC.Controllers.PhotoController 7
2017-09-28 11:39:18.2140 AdvWorksMVC.Controllers.PhotoController 7
2017-09-28 11:39:18.3490 AdvWorksMVC.Controllers.PhotoController 7
2017-09-28 11:39:18.4980 AdvWorksMVC.Controllers.PhotoController 7
2017-09-28 11:39:33.6018 AdvWorksMVC.Controllers.PhotoController 4
2017-09-28 11:42:47.9750 AdvWorksMVC.Controllers.PhotoController 4
2017-09-28 11:42:48.6070 AdvWorksMVC.Controllers.PhotoController 4
2017-09-28 11:42:48.7900 AdvWorksMVC.Controllers.PhotoController 4
2017-09-28 11:42:48.9660 AdvWorksMVC.Controllers.PhotoController 4
2017-09-28 11:42:49.1050 AdvWorksMVC.Controllers.PhotoController 4
2017-09-28 11:42:49.2860 AdvWorksMVC.Controllers.PhotoController 4
2017-09-28 11:42:49.4500 AdvWorksMVC.Controllers.PhotoController 4
2017-09-28 11:42:49.6301 AdvWorksMVC.Controllers.PhotoController 4
2017-09-28 11:42:49.9381 AdvWorksMVC.Controllers.PhotoController 4
2017-09-28 11:42:50.1351 AdvWorksMVC.Controllers.PhotoController 4
2017-09-28 11:42:50.3111 AdvWorksMVC.Controllers.PhotoController 4
2017-09-28 11:42:50.5061 AdvWorksMVC.Controllers.PhotoController 4
2017-09-28 11:42:50.6961 AdvWorksMVC.Controllers.PhotoController 4
2017-09-28 11:42:51.2412 AdvWorksMVC.Controllers.PhotoController 4
2017-09-28 11:42:51.4142 AdvWorksMVC.Controllers.PhotoController 4
2017-09-28 11:42:51.7282 AdvWorksMVC.Controllers.PhotoController 4
2017-09-28 11:42:51.9302 AdvWorksMVC.Controllers.PhotoController 4
2017-09-28 11:43:09.6482 AdvWorksMVC.Controllers.PhotoController 4
2017-09-28 11:43:12.6474 AdvWorksMVC.Controllers.PhotoController 4
2017-09-28 11:43:12.9504 AdvWorksMVC.Controllers.PhotoController 4
2017-09-28 11:43:13.1074 AdvWorksMVC.Controllers.PhotoController 4
2017-09-28 11:43:13.2824 AdvWorksMVC.Controllers.PhotoController 4
2017-09-28 11:43:37.3538 AdvWorksMVC.Controllers.PhotoController 4
2017-09-28 11:43:37.6658 AdvWorksMVC.Controllers.PhotoController 4
2017-09-28 11:43:37.8658 AdvWorksMVC.Controllers.PhotoController 4
2017-09-28 11:43:38.0588 AdvWorksMVC.Controllers.PhotoController 4
2017-09-28 11:43:38.2608 AdvWorksMVC.Controllers.PhotoController 4
2017-09-28 11:43:38.4348 AdvWorksMVC.Controllers.PhotoController 4
2017-09-28 11:43:38.6329 AdvWorksMVC.Controllers.PhotoController 4
2017-09-28 11:44:51.3120 AdvWorksMVC.Controllers.PhotoController 7
2017-09-28 11:44:53.7672 AdvWorksMVC.Controllers.PhotoController 7
2017-09-28 11:44:54.1592 AdvWorksMVC.Controllers.PhotoController 7
2017-09-28 11:44:55.0612 AdvWorksMVC.Controllers.PhotoController 7
2017-09-28 11:44:55.4003 AdvWorksMVC.Controllers.PhotoController 7
2017-09-28 11:44:55.7773 AdvWorksMVC.Controllers.PhotoController 7
2017-09-28 11:45:42.8120 AdvWorksMVC.Controllers.PhotoController 7
2017-09-28 11:45:43.0400 AdvWorksMVC.Controllers.PhotoController 7
2017-09-28 11:45:43.2180 AdvWorksMVC.Controllers.PhotoController 7
2017-09-28 11:45:43.4020 AdvWorksMVC.Controllers.PhotoController 7
2017-09-28 11:45:43.5860 AdvWorksMVC.Controllers.PhotoController 7
2017-09-28 11:45:43.7460 AdvWorksMVC.Controllers.PhotoController 7
2017-09-28 11:45:44.1350 AdvWorksMVC.Controllers.PhotoController 7
2017-09-28 11:45:44.3591 AdvWorksMVC.Controllers.PhotoController 7
2017-09-28 11:45:44.9061 AdvWorksMVC.Controllers.PhotoController 7
2017-09-28 11:45:45.1131 AdvWorksMVC.Controllers.PhotoController 7
2017-09-28 11:45:45.3291 AdvWorksMVC.Controllers.PhotoController 7
2017-09-28 11:45:45.6351 AdvWorksMVC.Controllers.PhotoController 7
2017-09-28 11:45:46.0091 AdvWorksMVC.Controllers.PhotoController 7
2017-09-28 11:45:46.1942 AdvWorksMVC.Controllers.PhotoController 7
2017-09-28 11:45:46.5352 AdvWorksMVC.Controllers.PhotoController 7
2017-09-28 11:45:46.7462 AdvWorksMVC.Controllers.PhotoController 7
2017-09-28 11:45:46.9052 AdvWorksMVC.Controllers.PhotoController 7
2017-09-28 11:45:47.0752 AdvWorksMVC.Controllers.PhotoController 7
2017-09-28 11:45:47.2412 AdvWorksMVC.Controllers.PhotoController 7
2017-09-28 11:45:47.3952 AdvWorksMVC.Controllers.PhotoController 7
2017-09-28 11:45:47.5772 AdvWorksMVC.Controllers.PhotoController 7
2017-09-28 11:45:47.9043 AdvWorksMVC.Controllers.PhotoController 7
2017-09-28 11:45:48.0823 AdvWorksMVC.Controllers.PhotoController 7
2017-09-28 11:45:48.2653 AdvWorksMVC.Controllers.PhotoController 7
2017-09-28 11:45:48.4423 AdvWorksMVC.Controllers.PhotoController 7
2017-09-28 11:45:48.7783 AdvWorksMVC.Controllers.PhotoController 7
2017-09-28 11:45:48.9773 AdvWorksMVC.Controllers.PhotoController 7
2017-09-28 11:46:20.1001 AdvWorksMVC.Controllers.PhotoController 7
2017-09-28 11:46:22.3932 AdvWorksMVC.Controllers.PhotoController 7
2017-09-28 11:46:22.5612 AdvWorksMVC.Controllers.PhotoController 7
2017-09-28 11:46:22.7112 AdvWorksMVC.Controllers.PhotoController 7
2017-09-28 11:46:41.1933 AdvWorksMVC.Controllers.PhotoController 7
2017-09-28 11:46:41.8973 AdvWorksMVC.Controllers.PhotoController 7
2017-09-28 11:46:42.2224 AdvWorksMVC.Controllers.PhotoController 7
2017-09-28 11:46:42.4304 AdvWorksMVC.Controllers.PhotoController 7
2017-09-28 11:46:42.8004 AdvWorksMVC.Controllers.PhotoController 7
2017-09-28 11:46:47.3947 AdvWorksMVC.Controllers.PhotoController 7
2017-09-28 11:47:15.6808 AdvWorksMVC.Controllers.PhotoController 7
2017-09-28 11:47:16.3168 AdvWorksMVC.Controllers.PhotoController 7
2017-09-28 11:47:16.5909 AdvWorksMVC.Controllers.PhotoController 7
2017-09-28 11:48:06.8527 AdvWorksMVC.Controllers.PhotoController 7
2017-09-28 11:48:07.0367 AdvWorksMVC.Controllers.PhotoController 7
2017-09-28 11:48:07.4108 AdvWorksMVC.Controllers.PhotoController 7
2017-09-28 11:48:07.5828 AdvWorksMVC.Controllers.PhotoController 7
2017-09-28 11:48:07.7438 AdvWorksMVC.Controllers.PhotoController 7
2017-09-28 11:48:07.9058 AdvWorksMVC.Controllers.PhotoController 7
2017-09-28 11:48:18.8324 AdvWorksMVC.Controllers.PhotoController 7
2017-09-28 11:48:20.2415 AdvWorksMVC.Controllers.PhotoController 7
2017-09-28 11:48:21.0165 AdvWorksMVC.Controllers.PhotoController 7
